{
  "components": [
    {
      "data": {
        "contents_checksum": "197b7cd77b888b1e0a6304648f8664c22fd959e111129332fd5edad790f7b782", 
        "source": "", 
        "type": "tar"
      }, 
      "dependencies": [
        "core", 
        "gcloud-deps", 
        "ssh-tools"
      ], 
      "details": {
        "description": "Handles all core functionality for the Cloud SDK.", 
        "display_name": "Cloud SDK Core Libraries (Platform Specific)"
      }, 
      "id": "core-nix", 
      "is_configuration": false, 
      "is_hidden": true, 
      "is_required": true, 
      "platform": {
        "operating_systems": [
          "CYGWIN", 
          "LINUX", 
          "MACOSX", 
          "MSYS"
        ]
      }, 
      "version": {
        "build_number": 20180924183125, 
        "version_string": "2018.09.24"
      }
    }
  ], 
  "revision": 20181130165010, 
  "schema_version": {
    "no_update": false, 
    "url": "https://dl.google.com/dl/cloudsdk/channels/rapid/google-cloud-sdk.tar.gz", 
    "version": 3
  }, 
  "version": "227.0.0"
}